EESchema Schematic File Version 4
LIBS:RPi_Zero_pHat_Template-cache
EELAYER 26 0
EELAYER END
$Descr A4 11693 8268
encoding utf-8
Sheet 4 4
Title ""
Date ""
Rev ""
Comp ""
Comment1 ""
Comment2 ""
Comment3 ""
Comment4 ""
$EndDescr
$Comp
L Device:R_Small_US R11
U 1 1 60BB49B1
P 1500 2050
F 0 "R11" H 1568 2096 50  0000 L CNN
F 1 "50" H 1568 2005 50  0000 L CNN
F 2 "Resistor_THT:R_Axial_DIN0204_L3.6mm_D1.6mm_P1.90mm_Vertical" H 1500 2050 50  0001 C CNN
F 3 "~" H 1500 2050 50  0001 C CNN
	1    1500 2050
	1    0    0    -1  
$EndComp
$Comp
L Device:R_Small_US R12
U 1 1 60BB4AC5
P 2700 2050
F 0 "R12" H 2768 2096 50  0000 L CNN
F 1 "50" H 2768 2005 50  0000 L CNN
F 2 "Resistor_THT:R_Axial_DIN0204_L3.6mm_D1.6mm_P1.90mm_Vertical" H 2700 2050 50  0001 C CNN
F 3 "~" H 2700 2050 50  0001 C CNN
	1    2700 2050
	1    0    0    -1  
$EndComp
$Comp
L Device:R_Small_US R13
U 1 1 60BB4AF4
P 3650 2050
F 0 "R13" H 3718 2096 50  0000 L CNN
F 1 "50" H 3718 2005 50  0000 L CNN
F 2 "Resistor_THT:R_Axial_DIN0204_L3.6mm_D1.6mm_P1.90mm_Vertical" H 3650 2050 50  0001 C CNN
F 3 "~" H 3650 2050 50  0001 C CNN
	1    3650 2050
	1    0    0    -1  
$EndComp
$Comp
L Device:LED D4
U 1 1 60BB4B23
P 1500 2600
F 0 "D4" V 1538 2483 50  0000 R CNN
F 1 "LED" V 1447 2483 50  0000 R CNN
F 2 "LED_THT:LED_D3.0mm" H 1500 2600 50  0001 C CNN
F 3 "~" H 1500 2600 50  0001 C CNN
	1    1500 2600
	0    -1   -1   0   
$EndComp
$Comp
L Device:LED D5
U 1 1 60BB4B91
P 2700 2600
F 0 "D5" V 2738 2483 50  0000 R CNN
F 1 "LED" V 2647 2483 50  0000 R CNN
F 2 "LED_THT:LED_D3.0mm" H 2700 2600 50  0001 C CNN
F 3 "~" H 2700 2600 50  0001 C CNN
	1    2700 2600
	0    -1   -1   0   
$EndComp
$Comp
L Device:LED D6
U 1 1 60BB4BB3
P 3650 2600
F 0 "D6" V 3688 2483 50  0000 R CNN
F 1 "LED" V 3597 2483 50  0000 R CNN
F 2 "LED_THT:LED_D3.0mm" H 3650 2600 50  0001 C CNN
F 3 "~" H 3650 2600 50  0001 C CNN
	1    3650 2600
	0    -1   -1   0   
$EndComp
Wire Wire Line
	1500 2150 1500 2450
Wire Wire Line
	2700 2150 2700 2450
Wire Wire Line
	3650 2150 3650 2450
Wire Wire Line
	1500 1950 1500 1750
Wire Wire Line
	2700 1950 2700 1700
Wire Wire Line
	3650 1950 3650 1700
Wire Wire Line
	1500 2750 1500 2950
Wire Wire Line
	1500 2950 2700 2950
Wire Wire Line
	2700 2950 2700 2750
Connection ~ 1500 2950
Wire Wire Line
	1500 2950 1500 3100
Wire Wire Line
	2700 2950 3650 2950
Wire Wire Line
	3650 2950 3650 2750
Connection ~ 2700 2950
Text Label 1500 3100 0    50   ~ 0
GND
Text Label 1500 1750 0    50   ~ 0
GPIO05
Text Label 2700 1700 0    50   ~ 0
GPIO17
Text Label 3650 1700 0    50   ~ 0
GPIO27
$EndSCHEMATC
